<svg xmlns="http://www.w3.org/2000/svg" width="80" height="80" viewBox="0 0 80 80">
    <g fill="none" fill-rule="evenodd">
        <circle cx="40" cy="40" r="40" fill="#ED1B24"/>
        <path fill="#FFF" d="M61.161 26H48.115v-3c0-1.654-1.351-3-3.011-3H35.068a3.01 3.01 0 0 0-3.01 3v3H19.01A3.01 3.01 0 0 0 16 29v28c0 1.654 1.35 3 3.01 3h42.151a3.01 3.01 0 0 0 3.011-3V29c0-1.654-1.35-3-3.01-3zm-27.096-3c0-.552.451-1 1.003-1h10.036c.552 0 1.004.448 1.004 1v3H34.065v-3zM19.01 28H61.16c.552 0 1.004.448 1.004 1v9H18.007v-9c0-.552.452-1 1.004-1zm31.11 12h4.015v4h-4.014v-4zm-24.085 0h4.014v4h-4.014v-4zM61.16 58h-42.15a1.003 1.003 0 0 1-1.004-1V40h6.022v5c0 .552.45 1 1.003 1h6.022c.554 0 1.003-.448 1.003-1v-5h16.058v5c0 .552.45 1 1.003 1h6.022c.554 0 1.003-.448 1.003-1v-5h6.022v17c0 .552-.452 1-1.004 1z"/>
    </g>
</svg>
